…
After the slides have been distributed one or more stakeholders may make
amendments to the slides. The [`{officer}`](https://davidgohel.github.io/officer/)
package enables you to access the content of PowerPoint documents. This means
I can convert the PowerPoint document back into a dataset/spreadsheet. First
we read in the pptx file and then extract a summary of the content.

```r
gt_pptx <- officer::read_pptx("gtcars_test.pptx")
gt_content <- officer::pptx_summary(gt_pptx) |>
  tibble::as_tibble() |>
  dplyr::filter(text != "")

gt_content
#> # A tibble: 1,223 × 8
#>    text             id    content_type slide_id row_id cell_id col_span row_span
#>    <chr>            <chr> <chr>           <int>  <int>   <int>    <int>    <int>
#>  1 Reference slides 2     paragraph           1     NA      NA       NA       NA
#>  2 Ford – GT        2     paragraph           2     NA      NA       NA       NA
#>  3 name             6     table cell          2      1       1        1        1
#>  4 Year             6     table cell          2      2       1        1        1
#>  5 Trim             6     table cell          2      3       1        1        1
#>  6 Body style       6     table cell          2      4       1        1        1
#>  7 Horsepower       6     table cell          2      5       1        1        1
#>  8 Torque           6     table cell          2      6       1        1        1
#>  9 MPG (City)       6     table cell          2      7       1        1        1
#> 10 MPG (Highway)    6     table cell          2      8       1        1        1
#> # ℹ 1,213 more rows
#> # ℹ Use `print(n = ...)` to see more rows
```
…
```r
metrics_df <- gt_content |>
  dplyr::filter(slide_id > 1, id == 2 | id == 6) |>
    dplyr::mutate(
      cell_id = dplyr::if_else(col_span == 2, 2, cell_id),
      cell_id = tidyr::replace_na(cell_id, 2),
      row_id = tidyr::replace_na(row_id, 0),
      type = dplyr::if_else(cell_id == 1, "name", "value")
    )

metrics_df

#> # A tibble: 1,222 × 9
#>    text          id    content_type slide_id row_id cell_id col_span row_span type 
#>    <chr>         <chr> <chr>           <int>  <int>   <dbl>    <int>    <int> <chr>
#>  1 Ford – GT     2     paragraph           2      0       2       NA       NA value
#>  2 name          6     table cell          2      1       1        1        1 name 
#>  3 Year          6     table cell          2      2       1        1        1 name 
#>  4 Trim          6     table cell          2      3       1        1        1 name 
#>  5 Body style    6     table cell          2      4       1        1        1 name 
#>  6 Horsepower    6     table cell          2      5       1        1        1 name 
#>  7 Torque        6     table cell          2      6       1        1        1 name 
#>  8 MPG (City)    6     table cell          2      7       1        1        1 name 
#>  9 MPG (Highway) 6     table cell          2      8       1        1        1 name 
#> 10 Drivetrain    6     table cell          2      9       1        1        1 name 
#> # ℹ 1,212 more rows
#> ℹ Use `print(n = ...)` to see more rows
```

We can now pivot this tibble in order to get a dataset of name-value pairs.

```r
metrics_df <- metrics_df |>
  tidyr::pivot_wider(
    names_from = type, 
    values_from = text,
    id_cols = c(slide_id, row_id)
  )

metrics_df
#> # A tibble: 658 × 4
#>    slide_id row_id value            name         
#>       <int>  <int> <chr>            <chr>        
#>  1        2      0 Ford – GT        NA           
#>  2        2      1 value            name         
#>  3        2      2 2017             Year         
#>  4        2      3 Base Coupe       Trim         
#>  5        2      4 Coupe            Body style   
#>  6        2      5 647              Horsepower   
#>  7        2      6 550              Torque       
#>  8        2      7 11               MPG (City)   
#>  9        2      8 18               MPG (Highway)
#> 10        2      9 Rear wheel drive Drivetrain   
#> # ℹ 648 more rows
#> # ℹ Use `print(n = ...)` to see more rows
```
…
```r
metrics_df <- metrics_df |>
  dplyr::mutate(
    name = dplyr::case_when(
      is.na(name) ~ "mfr_model",
      TRUE ~ tolower(stringr::str_replace_all(name, "[^A-z]", "_"))
    ),
    name = gsub("__", "_", name),
    name = gsub("_$", "", name)
  )

metrics_df
#> # A tibble: 658 × 4
#>    slide_id row_id value            name       
#>       <int>  <int> <chr>            <chr>      
#>  1        2      0 Ford – GT        mfr_model  
#>  2        2      1 value            name       
#>  3        2      2 2017             year       
#>  4        2      3 Base Coupe       trim       
#>  5        2      4 Coupe            body_style 
#>  6        2      5 647              horsepower 
#>  7        2      6 550              torque     
#>  8        2      7 11               mpg_city   
#>  9        2      8 18               mpg_highway
#> 10        2      9 Rear wheel drive drivetrain 
#> # ℹ 648 more rows
#> # ℹ Use `print(n = ...)` to see more rows
```
…
